%!PS-Adobe-3.0 EPSF-3.0
%%Title: raw.eps
%%Creator: Logo2PS 1.1; Copyright 1997, Vladimir Batagelj
%%BoundingBox: 0 0 499 499
%%EndComments
%%Page: raw.eps
1 setlinecap 1 setlinejoin
/Courier 9 selectfont
gsave
0.0000 1.0000 0.0000 setrgbcolor
0 0 moveto 499 0 lineto 499 499 lineto 0 499 lineto
 closepath fill grestore
250 250 moveto
0 setlinewidth
50 450 moveto
50 450 moveto
350 450 lineto
350 450 moveto
350 150 lineto
350 150 moveto
50 150 lineto
50 150 moveto
50 450 lineto
50 450 moveto
125 450 moveto
125 450 moveto
125 375 moveto
125 375 moveto
275 375 lineto
275 375 moveto
275 225 lineto
275 225 moveto
125 225 lineto
125 225 moveto
125 375 lineto
125 375 moveto
162 375 moveto
162 375 moveto
162 338 moveto
162 338 moveto
237 338 lineto
237 338 moveto
237 263 lineto
237 263 moveto
162 263 lineto
162 263 moveto
162 338 lineto
162 338 moveto
181 338 moveto
181 338 moveto
181 319 moveto
181 319 moveto
219 319 lineto
219 319 moveto
219 281 lineto
219 281 moveto
181 281 lineto
181 281 moveto
181 319 lineto
181 319 moveto
191 319 moveto
191 319 moveto
191 309 moveto
stroke
showpage
%%EOF
