\relax 
\citation{c2}
\citation{Mittag}
\citation{Mittag}
\citation{brain}
\citation{shake}
\citation{brain}
\citation{shake}
\citation{cpp}
\citation{meta}
\bibdata{references.bib}
\bibcite{c2}{1}
\bibcite{Mittag}{2}
\bibcite{brain}{3}
\bibcite{shake}{4}
\bibcite{cpp}{5}
\bibcite{meta}{6}
\bibstyle{ieeetr}
